<svg width="1024" height="1024" viewBox="0 0 1024 1024" fill="none" xmlns="http://www.w3.org/2000/svg">
<g clip-path="url(#clip0_12_182)">
<path d="M194.956 1019.78C194.943 1019.69 194.913 1019.61 194.866 1019.54C194.82 1019.46 194.761 1019.39 194.691 1019.34C194.621 1019.28 194.541 1019.24 194.451 1019.21C194.365 1019.17 194.273 1019.16 194.176 1019.16C194 1019.16 193.85 1019.19 193.726 1019.26C193.603 1019.33 193.503 1019.42 193.426 1019.54C193.35 1019.65 193.293 1019.78 193.256 1019.93C193.223 1020.07 193.206 1020.23 193.206 1020.38C193.206 1020.53 193.223 1020.68 193.256 1020.82C193.293 1020.96 193.35 1021.09 193.426 1021.2C193.503 1021.32 193.603 1021.41 193.726 1021.48C193.85 1021.54 194 1021.58 194.176 1021.58C194.416 1021.58 194.603 1021.5 194.736 1021.36C194.873 1021.21 194.956 1021.02 194.986 1020.78H195.746C195.726 1021 195.675 1021.2 195.591 1021.38C195.508 1021.56 195.398 1021.72 195.261 1021.84C195.125 1021.97 194.965 1022.07 194.781 1022.13C194.598 1022.2 194.396 1022.23 194.176 1022.23C193.903 1022.23 193.656 1022.19 193.436 1022.09C193.22 1022 193.036 1021.86 192.886 1021.7C192.736 1021.53 192.621 1021.34 192.541 1021.11C192.461 1020.89 192.421 1020.64 192.421 1020.38C192.421 1020.12 192.461 1019.87 192.541 1019.64C192.621 1019.41 192.736 1019.21 192.886 1019.04C193.036 1018.87 193.22 1018.74 193.436 1018.64C193.656 1018.55 193.903 1018.5 194.176 1018.5C194.373 1018.5 194.558 1018.53 194.731 1018.58C194.908 1018.64 195.065 1018.72 195.201 1018.83C195.341 1018.94 195.456 1019.07 195.546 1019.23C195.636 1019.39 195.693 1019.58 195.716 1019.78H194.956ZM196.208 1019.57H196.883V1020.05H196.893C196.926 1019.97 196.971 1019.89 197.028 1019.83C197.084 1019.76 197.149 1019.7 197.222 1019.65C197.296 1019.6 197.374 1019.56 197.458 1019.54C197.541 1019.51 197.628 1019.5 197.718 1019.5C197.764 1019.5 197.816 1019.51 197.873 1019.52V1020.18C197.839 1020.18 197.799 1020.17 197.753 1020.17C197.706 1020.16 197.661 1020.16 197.618 1020.16C197.488 1020.16 197.378 1020.18 197.288 1020.22C197.198 1020.27 197.124 1020.33 197.068 1020.4C197.014 1020.48 196.976 1020.56 196.953 1020.66C196.929 1020.76 196.918 1020.87 196.918 1020.99V1022.15H196.208V1019.57ZM199.803 1020.58C199.77 1020.4 199.71 1020.27 199.623 1020.17C199.54 1020.08 199.411 1020.03 199.238 1020.03C199.125 1020.03 199.03 1020.05 198.953 1020.09C198.88 1020.13 198.82 1020.18 198.773 1020.23C198.73 1020.29 198.698 1020.35 198.678 1020.41C198.661 1020.48 198.651 1020.53 198.648 1020.58H199.803ZM198.648 1021.03C198.658 1021.26 198.716 1021.43 198.823 1021.53C198.93 1021.64 199.083 1021.69 199.283 1021.69C199.426 1021.69 199.55 1021.65 199.653 1021.58C199.756 1021.51 199.82 1021.43 199.843 1021.35H200.468C200.368 1021.66 200.215 1021.88 200.008 1022.02C199.801 1022.15 199.551 1022.22 199.258 1022.22C199.055 1022.22 198.871 1022.19 198.708 1022.12C198.545 1022.06 198.406 1021.96 198.293 1021.84C198.18 1021.72 198.091 1021.58 198.028 1021.41C197.968 1021.25 197.938 1021.06 197.938 1020.86C197.938 1020.67 197.97 1020.49 198.033 1020.32C198.096 1020.16 198.186 1020.01 198.303 1019.89C198.42 1019.77 198.558 1019.67 198.718 1019.6C198.881 1019.53 199.061 1019.5 199.258 1019.5C199.478 1019.5 199.67 1019.54 199.833 1019.63C199.996 1019.71 200.13 1019.82 200.233 1019.97C200.34 1020.11 200.416 1020.27 200.463 1020.46C200.51 1020.64 200.526 1020.83 200.513 1021.03H198.648ZM200.904 1020.36C200.914 1020.2 200.956 1020.06 201.029 1019.95C201.102 1019.84 201.196 1019.75 201.309 1019.68C201.422 1019.62 201.549 1019.57 201.689 1019.54C201.832 1019.51 201.976 1019.5 202.119 1019.5C202.249 1019.5 202.381 1019.51 202.514 1019.53C202.647 1019.54 202.769 1019.58 202.879 1019.63C202.989 1019.69 203.079 1019.76 203.149 1019.86C203.219 1019.95 203.254 1020.08 203.254 1020.23V1021.58C203.254 1021.69 203.261 1021.81 203.274 1021.91C203.287 1022.02 203.311 1022.1 203.344 1022.15H202.624C202.611 1022.11 202.599 1022.07 202.589 1022.03C202.582 1021.99 202.577 1021.95 202.574 1021.9C202.461 1022.02 202.327 1022.1 202.174 1022.15C202.021 1022.19 201.864 1022.22 201.704 1022.22C201.581 1022.22 201.466 1022.2 201.359 1022.17C201.252 1022.14 201.159 1022.1 201.079 1022.03C200.999 1021.97 200.936 1021.89 200.889 1021.79C200.846 1021.7 200.824 1021.58 200.824 1021.45C200.824 1021.3 200.849 1021.18 200.899 1021.09C200.952 1020.99 201.019 1020.91 201.099 1020.86C201.182 1020.8 201.276 1020.76 201.379 1020.73C201.486 1020.7 201.592 1020.68 201.699 1020.66C201.806 1020.65 201.911 1020.63 202.014 1020.62C202.117 1020.61 202.209 1020.6 202.289 1020.58C202.369 1020.56 202.432 1020.53 202.479 1020.49C202.526 1020.45 202.547 1020.4 202.544 1020.32C202.544 1020.25 202.531 1020.19 202.504 1020.14C202.481 1020.1 202.447 1020.06 202.404 1020.04C202.364 1020.01 202.316 1019.99 202.259 1019.99C202.206 1019.98 202.147 1019.97 202.084 1019.97C201.944 1019.97 201.834 1020 201.754 1020.06C201.674 1020.12 201.627 1020.22 201.614 1020.36H200.904ZM202.544 1020.89C202.514 1020.91 202.476 1020.94 202.429 1020.95C202.386 1020.97 202.337 1020.98 202.284 1020.99C202.234 1021 202.181 1021.01 202.124 1021.01C202.067 1021.02 202.011 1021.03 201.954 1021.04C201.901 1021.05 201.847 1021.06 201.794 1021.08C201.744 1021.09 201.699 1021.12 201.659 1021.15C201.622 1021.17 201.592 1021.21 201.569 1021.25C201.546 1021.3 201.534 1021.35 201.534 1021.42C201.534 1021.48 201.546 1021.53 201.569 1021.58C201.592 1021.62 201.624 1021.66 201.664 1021.68C201.704 1021.71 201.751 1021.72 201.804 1021.73C201.857 1021.74 201.912 1021.75 201.969 1021.75C202.109 1021.75 202.217 1021.72 202.294 1021.68C202.371 1021.63 202.427 1021.58 202.464 1021.51C202.501 1021.45 202.522 1021.38 202.529 1021.31C202.539 1021.25 202.544 1021.19 202.544 1021.15V1020.89ZM204.705 1019.57H205.225V1020.04H204.705V1021.32C204.705 1021.44 204.725 1021.52 204.765 1021.56C204.805 1021.6 204.885 1021.62 205.005 1021.62C205.045 1021.62 205.083 1021.62 205.12 1021.62C205.157 1021.61 205.192 1021.61 205.225 1021.6V1022.15C205.165 1022.16 205.098 1022.17 205.025 1022.17C204.952 1022.18 204.88 1022.18 204.81 1022.18C204.7 1022.18 204.595 1022.17 204.495 1022.15C204.398 1022.14 204.312 1022.11 204.235 1022.07C204.162 1022.02 204.103 1021.96 204.06 1021.88C204.017 1021.8 203.995 1021.7 203.995 1021.57V1020.04H203.565V1019.57H203.995V1018.79H204.705V1019.57ZM207.303 1020.58C207.27 1020.4 207.21 1020.27 207.123 1020.17C207.04 1020.08 206.911 1020.03 206.738 1020.03C206.625 1020.03 206.53 1020.05 206.453 1020.09C206.38 1020.13 206.32 1020.18 206.273 1020.23C206.23 1020.29 206.198 1020.35 206.178 1020.41C206.161 1020.48 206.151 1020.53 206.148 1020.58H207.303ZM206.148 1021.03C206.158 1021.26 206.216 1021.43 206.323 1021.53C206.43 1021.64 206.583 1021.69 206.783 1021.69C206.926 1021.69 207.05 1021.65 207.153 1021.58C207.256 1021.51 207.32 1021.43 207.343 1021.35H207.968C207.868 1021.66 207.715 1021.88 207.508 1022.02C207.301 1022.15 207.051 1022.22 206.758 1022.22C206.555 1022.22 206.371 1022.19 206.208 1022.12C206.045 1022.06 205.906 1021.96 205.793 1021.84C205.68 1021.72 205.591 1021.58 205.528 1021.41C205.468 1021.25 205.438 1021.06 205.438 1020.86C205.438 1020.67 205.47 1020.49 205.533 1020.32C205.596 1020.16 205.686 1020.01 205.803 1019.89C205.92 1019.77 206.058 1019.67 206.218 1019.6C206.381 1019.53 206.561 1019.5 206.758 1019.5C206.978 1019.5 207.17 1019.54 207.333 1019.63C207.496 1019.71 207.63 1019.82 207.733 1019.97C207.84 1020.11 207.916 1020.27 207.963 1020.46C208.01 1020.64 208.026 1020.83 208.013 1021.03H206.148ZM210.269 1020.85C210.269 1020.75 210.259 1020.64 210.239 1020.55C210.219 1020.45 210.184 1020.36 210.134 1020.29C210.087 1020.21 210.026 1020.15 209.949 1020.1C209.872 1020.06 209.776 1020.03 209.659 1020.03C209.542 1020.03 209.444 1020.06 209.364 1020.1C209.284 1020.15 209.219 1020.21 209.169 1020.29C209.122 1020.36 209.087 1020.45 209.064 1020.55C209.044 1020.65 209.034 1020.75 209.034 1020.86C209.034 1020.96 209.046 1021.06 209.069 1021.16C209.092 1021.26 209.129 1021.35 209.179 1021.43C209.232 1021.5 209.297 1021.57 209.374 1021.62C209.454 1021.66 209.549 1021.69 209.659 1021.69C209.776 1021.69 209.872 1021.66 209.949 1021.62C210.029 1021.57 210.092 1021.51 210.139 1021.43C210.186 1021.35 210.219 1021.26 210.239 1021.16C210.259 1021.06 210.269 1020.96 210.269 1020.85ZM210.279 1021.82H210.269C210.186 1021.96 210.076 1022.06 209.939 1022.13C209.806 1022.19 209.654 1022.22 209.484 1022.22C209.291 1022.22 209.121 1022.18 208.974 1022.11C208.827 1022.03 208.706 1021.93 208.609 1021.8C208.516 1021.67 208.444 1021.52 208.394 1021.36C208.347 1021.19 208.324 1021.02 208.324 1020.84C208.324 1020.66 208.347 1020.5 208.394 1020.34C208.444 1020.17 208.516 1020.03 208.609 1019.91C208.706 1019.78 208.826 1019.69 208.969 1019.61C209.112 1019.54 209.279 1019.5 209.469 1019.5C209.622 1019.5 209.767 1019.53 209.904 1019.6C210.044 1019.66 210.154 1019.76 210.234 1019.88H210.244V1018.58H210.954V1022.15H210.279V1021.82ZM214.777 1020.86C214.777 1020.75 214.766 1020.65 214.742 1020.55C214.719 1020.45 214.682 1020.36 214.632 1020.28C214.582 1020.21 214.519 1020.15 214.442 1020.1C214.369 1020.06 214.279 1020.03 214.172 1020.03C214.069 1020.03 213.979 1020.06 213.902 1020.1C213.826 1020.15 213.762 1020.21 213.712 1020.28C213.662 1020.36 213.626 1020.45 213.602 1020.55C213.579 1020.65 213.567 1020.75 213.567 1020.86C213.567 1020.97 213.579 1021.07 213.602 1021.17C213.626 1021.27 213.662 1021.36 213.712 1021.44C213.762 1021.51 213.826 1021.58 213.902 1021.62C213.979 1021.67 214.069 1021.69 214.172 1021.69C214.279 1021.69 214.369 1021.67 214.442 1021.62C214.519 1021.58 214.582 1021.51 214.632 1021.44C214.682 1021.36 214.719 1021.27 214.742 1021.17C214.766 1021.07 214.777 1020.97 214.777 1020.86ZM212.882 1018.58H213.592V1019.88H213.602C213.689 1019.75 213.806 1019.65 213.952 1019.59C214.102 1019.53 214.257 1019.5 214.417 1019.5C214.547 1019.5 214.676 1019.52 214.802 1019.58C214.929 1019.63 215.042 1019.71 215.142 1019.82C215.246 1019.93 215.329 1020.07 215.392 1020.25C215.456 1020.42 215.487 1020.62 215.487 1020.86C215.487 1021.09 215.456 1021.3 215.392 1021.47C215.329 1021.64 215.246 1021.78 215.142 1021.89C215.042 1022 214.929 1022.08 214.802 1022.14C214.676 1022.19 214.547 1022.22 214.417 1022.22C214.227 1022.22 214.057 1022.19 213.907 1022.13C213.757 1022.07 213.644 1021.97 213.567 1021.82H213.557V1022.15H212.882V1018.58ZM217.214 1022.47C217.137 1022.68 217.031 1022.83 216.894 1022.92C216.757 1023.01 216.567 1023.06 216.324 1023.06C216.251 1023.06 216.177 1023.05 216.104 1023.05C216.034 1023.04 215.962 1023.04 215.889 1023.03V1022.45C215.956 1022.45 216.024 1022.46 216.094 1022.47C216.164 1022.47 216.234 1022.48 216.304 1022.47C216.397 1022.46 216.466 1022.43 216.509 1022.36C216.556 1022.3 216.579 1022.23 216.579 1022.15C216.579 1022.1 216.569 1022.04 216.549 1021.99L215.644 1019.57H216.399L216.984 1021.34H216.994L217.559 1019.57H218.294L217.214 1022.47ZM219.998 1018.58H220.783V1022.15H219.998V1018.58ZM223.158 1020.48C223.111 1020.18 222.936 1020.03 222.633 1020.03C222.52 1020.03 222.425 1020.06 222.348 1020.11C222.271 1020.16 222.208 1020.23 222.158 1020.31C222.111 1020.39 222.078 1020.48 222.058 1020.58C222.038 1020.68 222.028 1020.78 222.028 1020.87C222.028 1020.97 222.038 1021.06 222.058 1021.16C222.078 1021.25 222.11 1021.34 222.153 1021.42C222.2 1021.5 222.261 1021.56 222.338 1021.61C222.415 1021.66 222.508 1021.69 222.618 1021.69C222.788 1021.69 222.918 1021.64 223.008 1021.55C223.101 1021.45 223.16 1021.32 223.183 1021.16H223.868C223.821 1021.51 223.688 1021.77 223.468 1021.95C223.248 1022.13 222.966 1022.22 222.623 1022.22C222.43 1022.22 222.251 1022.19 222.088 1022.12C221.928 1022.06 221.791 1021.96 221.678 1021.85C221.565 1021.73 221.476 1021.59 221.413 1021.43C221.35 1021.27 221.318 1021.09 221.318 1020.9C221.318 1020.7 221.346 1020.51 221.403 1020.34C221.463 1020.17 221.55 1020.02 221.663 1019.9C221.776 1019.77 221.915 1019.67 222.078 1019.6C222.241 1019.53 222.428 1019.5 222.638 1019.5C222.791 1019.5 222.938 1019.52 223.078 1019.56C223.221 1019.6 223.348 1019.66 223.458 1019.74C223.571 1019.82 223.663 1019.92 223.733 1020.05C223.803 1020.17 223.843 1020.31 223.853 1020.48H223.158ZM224.899 1020.86C224.899 1020.97 224.909 1021.07 224.929 1021.17C224.949 1021.26 224.982 1021.35 225.029 1021.43C225.079 1021.51 225.144 1021.57 225.224 1021.62C225.304 1021.66 225.404 1021.69 225.524 1021.69C225.644 1021.69 225.744 1021.66 225.824 1021.62C225.907 1021.57 225.972 1021.51 226.019 1021.43C226.069 1021.35 226.104 1021.26 226.124 1021.17C226.144 1021.07 226.154 1020.97 226.154 1020.86C226.154 1020.76 226.144 1020.66 226.124 1020.56C226.104 1020.46 226.069 1020.37 226.019 1020.29C225.972 1020.22 225.907 1020.15 225.824 1020.11C225.744 1020.06 225.644 1020.03 225.524 1020.03C225.404 1020.03 225.304 1020.06 225.224 1020.11C225.144 1020.15 225.079 1020.22 225.029 1020.29C224.982 1020.37 224.949 1020.46 224.929 1020.56C224.909 1020.66 224.899 1020.76 224.899 1020.86ZM224.189 1020.86C224.189 1020.66 224.221 1020.47 224.284 1020.3C224.347 1020.13 224.437 1019.99 224.554 1019.87C224.671 1019.75 224.811 1019.66 224.974 1019.6C225.137 1019.53 225.321 1019.5 225.524 1019.5C225.727 1019.5 225.911 1019.53 226.074 1019.6C226.241 1019.66 226.382 1019.75 226.499 1019.87C226.616 1019.99 226.706 1020.13 226.769 1020.3C226.832 1020.47 226.864 1020.66 226.864 1020.86C226.864 1021.07 226.832 1021.26 226.769 1021.42C226.706 1021.59 226.616 1021.73 226.499 1021.85C226.382 1021.97 226.241 1022.06 226.074 1022.12C225.911 1022.19 225.727 1022.22 225.524 1022.22C225.321 1022.22 225.137 1022.19 224.974 1022.12C224.811 1022.06 224.671 1021.97 224.554 1021.85C224.437 1021.73 224.347 1021.59 224.284 1021.42C224.221 1021.26 224.189 1021.07 224.189 1020.86ZM227.326 1019.57H228.001V1019.93H228.016C228.106 1019.78 228.222 1019.67 228.366 1019.6C228.509 1019.53 228.656 1019.5 228.806 1019.5C228.996 1019.5 229.151 1019.52 229.271 1019.58C229.394 1019.63 229.491 1019.7 229.561 1019.79C229.631 1019.88 229.679 1019.99 229.706 1020.13C229.736 1020.26 229.751 1020.4 229.751 1020.56V1022.15H229.041V1020.69C229.041 1020.48 229.007 1020.32 228.941 1020.22C228.874 1020.11 228.756 1020.06 228.586 1020.06C228.392 1020.06 228.252 1020.12 228.166 1020.23C228.079 1020.35 228.036 1020.53 228.036 1020.8V1022.15H227.326V1019.57ZM232.185 1020.86C232.185 1020.75 232.173 1020.65 232.15 1020.55C232.126 1020.45 232.09 1020.36 232.04 1020.28C231.99 1020.21 231.926 1020.15 231.85 1020.1C231.776 1020.06 231.686 1020.03 231.58 1020.03C231.476 1020.03 231.386 1020.06 231.31 1020.1C231.233 1020.15 231.17 1020.21 231.12 1020.28C231.07 1020.36 231.033 1020.45 231.01 1020.55C230.986 1020.65 230.975 1020.75 230.975 1020.86C230.975 1020.97 230.986 1021.07 231.01 1021.17C231.033 1021.27 231.07 1021.36 231.12 1021.44C231.17 1021.51 231.233 1021.58 231.31 1021.62C231.386 1021.67 231.476 1021.69 231.58 1021.69C231.686 1021.69 231.776 1021.67 231.85 1021.62C231.926 1021.58 231.99 1021.51 232.04 1021.44C232.09 1021.36 232.126 1021.27 232.15 1021.17C232.173 1021.07 232.185 1020.97 232.185 1020.86ZM230.29 1018.58H231V1019.88H231.01C231.096 1019.75 231.213 1019.65 231.36 1019.59C231.51 1019.53 231.665 1019.5 231.825 1019.5C231.955 1019.5 232.083 1019.52 232.21 1019.58C232.336 1019.63 232.45 1019.71 232.55 1019.82C232.653 1019.93 232.736 1020.07 232.8 1020.25C232.863 1020.42 232.895 1020.62 232.895 1020.86C232.895 1021.09 232.863 1021.3 232.8 1021.47C232.736 1021.64 232.653 1021.78 232.55 1021.89C232.45 1022 232.336 1022.08 232.21 1022.14C232.083 1022.19 231.955 1022.22 231.825 1022.22C231.635 1022.22 231.465 1022.19 231.315 1022.13C231.165 1022.07 231.051 1021.97 230.975 1021.82H230.965V1022.15H230.29V1018.58ZM233.976 1020.86C233.976 1020.97 233.986 1021.07 234.006 1021.17C234.026 1021.26 234.06 1021.35 234.106 1021.43C234.156 1021.51 234.221 1021.57 234.301 1021.62C234.381 1021.66 234.481 1021.69 234.601 1021.69C234.721 1021.69 234.821 1021.66 234.901 1021.62C234.985 1021.57 235.05 1021.51 235.096 1021.43C235.146 1021.35 235.181 1021.26 235.201 1021.17C235.221 1021.07 235.231 1020.97 235.231 1020.86C235.231 1020.76 235.221 1020.66 235.201 1020.56C235.181 1020.46 235.146 1020.37 235.096 1020.29C235.05 1020.22 234.985 1020.15 234.901 1020.11C234.821 1020.06 234.721 1020.03 234.601 1020.03C234.481 1020.03 234.381 1020.06 234.301 1020.11C234.221 1020.15 234.156 1020.22 234.106 1020.29C234.06 1020.37 234.026 1020.46 234.006 1020.56C233.986 1020.66 233.976 1020.76 233.976 1020.86ZM233.266 1020.86C233.266 1020.66 233.298 1020.47 233.361 1020.3C233.425 1020.13 233.515 1019.99 233.631 1019.87C233.748 1019.75 233.888 1019.66 234.051 1019.6C234.215 1019.53 234.398 1019.5 234.601 1019.5C234.805 1019.5 234.988 1019.53 235.151 1019.6C235.318 1019.66 235.46 1019.75 235.576 1019.87C235.693 1019.99 235.783 1020.13 235.846 1020.3C235.91 1020.47 235.941 1020.66 235.941 1020.86C235.941 1021.07 235.91 1021.26 235.846 1021.42C235.783 1021.59 235.693 1021.73 235.576 1021.85C235.46 1021.97 235.318 1022.06 235.151 1022.12C234.988 1022.19 234.805 1022.22 234.601 1022.22C234.398 1022.22 234.215 1022.19 234.051 1022.12C233.888 1022.06 233.748 1021.97 233.631 1021.85C233.515 1021.73 233.425 1021.59 233.361 1021.42C233.298 1021.26 233.266 1021.07 233.266 1020.86ZM237.063 1020.79L236.213 1019.57H237.023L237.478 1020.24L237.928 1019.57H238.713L237.863 1020.78L238.818 1022.15H238.008L237.468 1021.34L236.928 1022.15H236.133L237.063 1020.79Z" fill="black"/>
<path fill-rule="evenodd" clip-rule="evenodd" d="M512 802C579.549 802 641.935 779.896 692.32 742.527L268.473 318.68C231.104 369.065 209 431.451 209 499C209 666.342 344.658 802 512 802ZM331.561 255.561L755.439 679.439C792.861 629.033 815 566.602 815 499C815 331.658 679.342 196 512 196C444.398 196 381.967 218.139 331.561 255.561ZM512 882C723.525 882 895 710.525 895 499C895 287.475 723.525 116 512 116C300.475 116 129 287.475 129 499C129 710.525 300.475 882 512 882ZM286.797 373.555C287.705 368.268 289.05 363.097 290.804 358.09L326.569 393.855C327.191 402.155 329.702 410.267 333.984 417.547C340.554 428.716 350.875 437.21 363.124 441.515L380.247 447.533L390.53 457.816V480.196V556.472H489.186L530.186 597.472H390.53H349.53V556.472V480.196C328.153 472.683 310.127 457.854 298.645 438.336C287.163 418.817 282.966 395.869 286.797 373.555ZM628.387 480.196V535.308L669.387 576.308V556.472V480.196C690.764 472.683 708.789 457.854 720.271 438.336C731.753 418.817 735.951 395.869 732.12 373.555C728.289 351.241 716.677 331.002 699.34 316.422C682.004 301.842 660.062 293.862 637.401 293.896C623.179 293.872 609.133 297.039 596.299 303.163C585.801 290.3 572.568 279.933 557.562 272.813C542.555 265.694 526.151 262 509.538 262C492.926 262 476.521 265.694 461.515 272.813C446.508 279.933 433.276 290.3 422.777 303.163C411.585 297.822 399.47 294.73 387.121 294.042L439.992 346.913L454.54 329.088C461.191 320.94 469.576 314.369 479.089 309.856C488.602 305.342 499.004 303 509.538 303C520.073 303 530.474 305.342 539.988 309.856C549.501 314.369 557.886 320.94 564.536 329.088L584.896 354.033L613.956 340.166C621.254 336.684 629.242 334.882 637.333 334.896L637.397 334.896L637.462 334.896C650.451 334.876 663.023 339.451 672.951 347.8C682.878 356.149 689.52 367.732 691.711 380.493C693.902 393.254 691.502 406.379 684.933 417.547C678.362 428.716 668.042 437.21 655.792 441.515L628.387 451.147V480.196ZM642.03 709.316L562.142 629.428H349.53V693.339C349.53 697.576 351.215 701.64 354.214 704.637C357.214 707.633 361.281 709.316 365.523 709.316H642.03Z" fill="white"/>
</g>
<defs>
<clipPath id="clip0_12_182">
<rect width="1024" height="1024" fill="white"/>
</clipPath>
</defs>
</svg>
