<svg width="1024" height="1024" viewBox="0 0 1024 1024" fill="none" xmlns="http://www.w3.org/2000/svg">
<g clip-path="url(#clip0_2_27)">
<path fill-rule="evenodd" clip-rule="evenodd" d="M512 815C679.342 815 815 679.342 815 512C815 455.699 799.645 402.984 772.893 357.816L834.204 304.855C872.677 364.574 895 435.68 895 512C895 723.525 723.525 895 512 895C432.458 895 358.579 870.752 297.352 829.245L355.244 771.352C400.978 799.054 454.627 815 512 815ZM715.034 187.184C656.174 150.314 586.576 129 512 129C300.475 129 129 300.475 129 512C129 591.148 153.008 664.689 194.139 725.737L252.073 667.803C224.726 622.277 209 568.975 209 512C209 344.658 344.658 209 512 209C566.852 209 618.3 223.575 662.682 249.065L715.034 187.184Z" fill="white"/>
<path d="M93.1388 914.43C92.0328 916.549 91.6315 918.966 91.9932 921.329C92.3549 923.693 93.4608 925.879 95.1499 927.569C96.839 929.26 99.0231 930.367 101.384 930.73C103.746 931.092 106.161 930.691 108.279 929.585L207.278 893.115C208.288 892.586 209.212 891.906 210.018 891.099L682.411 418.465C683.453 417.423 684.28 416.185 684.844 414.823C685.408 413.46 685.698 412 685.698 410.525C685.698 409.05 685.408 407.59 684.844 406.227C684.28 404.865 683.453 403.627 682.411 402.584L619.85 339.976C618.809 338.933 617.572 338.105 616.21 337.541C614.849 336.976 613.39 336.686 611.916 336.686C610.442 336.686 608.983 336.976 607.622 337.541C606.26 338.105 605.024 338.933 603.982 339.976L131.589 812.61C130.783 813.415 130.105 814.34 129.578 815.352L93.1388 914.43ZM148.674 827.273L611.916 363.8L658.607 410.525L195.366 874.001L120.902 902.326L148.674 827.273Z" fill="white"/>
<path d="M713.439 387.428L945.199 187.465C946.242 186.423 947.069 185.185 947.633 183.822C948.197 182.46 948.487 180.999 948.487 179.525C948.487 178.05 948.197 176.59 947.633 175.227C947.069 173.865 946.242 172.627 945.199 171.584L848.215 75.9566C846.071 73.9282 843.232 72.798 840.281 72.798C837.33 72.798 834.491 73.9282 832.347 75.9566L635.009 308.938C633.967 309.981 633.14 311.219 632.576 312.581C632.012 313.944 631.722 315.404 631.722 316.879C631.722 318.354 632.012 319.814 632.576 321.177C633.14 322.539 633.967 323.777 635.009 324.819L697.57 387.428C698.611 388.471 699.848 389.299 701.21 389.863C702.571 390.428 704.03 390.718 705.504 390.718C706.978 390.718 708.437 390.428 709.798 389.863C711.16 389.299 712.397 388.471 713.439 387.428Z" fill="white"/>
<rect x="289.064" y="226.063" width="721.279" height="89.242" transform="rotate(45 289.064 226.063)" fill="white"/>
</g>
<defs>
<clipPath id="clip0_2_27">
<rect width="1024" height="1024" fill="white"/>
</clipPath>
</defs>
</svg>
